{
    "bootstrap": false,
    "server": true,
    "bind_addr": "0.0.0.0",
    "advertise_addr": "192.168.56.102",
    "client_addr": "192.168.56.102",
    "addresses":{
        "http": "0.0.0.0"
      },
    "datacenter": "aluizio",
    "data_dir": "/var/lib/consul",
    "log_level": "DEBUG",
    "enable_syslog" : true,
    "node_name": "cserver02",
    "bootstrap_expect": 3,
    "ports": {
        "grpc": 8502
    },
    "connect": {
        "enabled": true
    },
    "ui_config": {
        "enabled": true
    },
    "retry_join": ["192.168.56.101", "192.168.56.102", "192.168.56.102"],
    "retry_interval" : "15s",
    "rejoin_after_leave": true
}